(['/Users/ezequielabregu/Desktop/Python_Learning/testPyinstaller/helloworld.py'],
 ['/Users/ezequielabregu/Desktop/Python_Learning/testPyinstaller'],
 ['codecs'],
 ['/Library/Frameworks/Python.framework/Versions/3.9/lib/python3.9/site-packages/_pyinstaller_hooks_contrib/hooks/stdhooks',
  '/Library/Frameworks/Python.framework/Versions/3.9/lib/python3.9/site-packages/_pyinstaller_hooks_contrib/hooks/stdhooks/__pycache__',
  '/Library/Frameworks/Python.framework/Versions/3.9/lib/python3.9/site-packages/_pyinstaller_hooks_contrib/hooks/rthooks',
  '/Library/Frameworks/Python.framework/Versions/3.9/lib/python3.9/site-packages/_pyinstaller_hooks_contrib/hooks/rthooks/__pycache__',
  '/Library/Frameworks/Python.framework/Versions/3.9/lib/python3.9/site-packages/_pyinstaller_hooks_contrib/hooks',
  '/Library/Frameworks/Python.framework/Versions/3.9/lib/python3.9/site-packages/pygame/__pyinstaller'],
 {},
 [],
 [],
 False,
 False,
 False,
 '3.9.12 (v3.9.12:b28265d7e6, Mar 23 2022, 18:22:40) \n'
 '[Clang 13.0.0 (clang-1300.0.29.30)]',
 [('pyi_rth_subprocess',
   '/Library/Frameworks/Python.framework/Versions/3.9/lib/python3.9/site-packages/PyInstaller/hooks/rthooks/pyi_rth_subprocess.py',
   'PYSOURCE'),
  ('helloworld',
   '/Users/ezequielabregu/Desktop/Python_Learning/testPyinstaller/helloworld.py',
   'PYSOURCE')],
 [('subprocess',
   '/Library/Frameworks/Python.framework/Versions/3.9/lib/python3.9/subprocess.py',
   'PYMODULE'),
  ('selectors',
   '/Library/Frameworks/Python.framework/Versions/3.9/lib/python3.9/selectors.py',
   'PYMODULE'),
  ('contextlib',
   '/Library/Frameworks/Python.framework/Versions/3.9/lib/python3.9/contextlib.py',
   'PYMODULE'),
  ('threading',
   '/Library/Frameworks/Python.framework/Versions/3.9/lib/python3.9/threading.py',
   'PYMODULE'),
  ('_threading_local',
   '/Library/Frameworks/Python.framework/Versions/3.9/lib/python3.9/_threading_local.py',
   'PYMODULE'),
  ('signal',
   '/Library/Frameworks/Python.framework/Versions/3.9/lib/python3.9/signal.py',
   'PYMODULE'),
  ('_strptime',
   '/Library/Frameworks/Python.framework/Versions/3.9/lib/python3.9/_strptime.py',
   'PYMODULE'),
  ('datetime',
   '/Library/Frameworks/Python.framework/Versions/3.9/lib/python3.9/datetime.py',
   'PYMODULE'),
  ('calendar',
   '/Library/Frameworks/Python.framework/Versions/3.9/lib/python3.9/calendar.py',
   'PYMODULE'),
  ('argparse',
   '/Library/Frameworks/Python.framework/Versions/3.9/lib/python3.9/argparse.py',
   'PYMODULE'),
  ('textwrap',
   '/Library/Frameworks/Python.framework/Versions/3.9/lib/python3.9/textwrap.py',
   'PYMODULE'),
  ('shutil',
   '/Library/Frameworks/Python.framework/Versions/3.9/lib/python3.9/shutil.py',
   'PYMODULE'),
  ('zipfile',
   '/Library/Frameworks/Python.framework/Versions/3.9/lib/python3.9/zipfile.py',
   'PYMODULE'),
  ('py_compile',
   '/Library/Frameworks/Python.framework/Versions/3.9/lib/python3.9/py_compile.py',
   'PYMODULE'),
  ('importlib.machinery',
   '/Library/Frameworks/Python.framework/Versions/3.9/lib/python3.9/importlib/machinery.py',
   'PYMODULE'),
  ('importlib',
   '/Library/Frameworks/Python.framework/Versions/3.9/lib/python3.9/importlib/__init__.py',
   'PYMODULE'),
  ('importlib.abc',
   '/Library/Frameworks/Python.framework/Versions/3.9/lib/python3.9/importlib/abc.py',
   'PYMODULE'),
  ('typing',
   '/Library/Frameworks/Python.framework/Versions/3.9/lib/python3.9/typing.py',
   'PYMODULE'),
  ('importlib._bootstrap',
   '/Library/Frameworks/Python.framework/Versions/3.9/lib/python3.9/importlib/_bootstrap.py',
   'PYMODULE'),
  ('importlib._bootstrap_external',
   '/Library/Frameworks/Python.framework/Versions/3.9/lib/python3.9/importlib/_bootstrap_external.py',
   'PYMODULE'),
  ('importlib.metadata',
   '/Library/Frameworks/Python.framework/Versions/3.9/lib/python3.9/importlib/metadata.py',
   'PYMODULE'),
  ('configparser',
   '/Library/Frameworks/Python.framework/Versions/3.9/lib/python3.9/configparser.py',
   'PYMODULE'),
  ('pathlib',
   '/Library/Frameworks/Python.framework/Versions/3.9/lib/python3.9/pathlib.py',
   'PYMODULE'),
  ('urllib.parse',
   '/Library/Frameworks/Python.framework/Versions/3.9/lib/python3.9/urllib/parse.py',
   'PYMODULE'),
  ('urllib',
   '/Library/Frameworks/Python.framework/Versions/3.9/lib/python3.9/urllib/__init__.py',
   'PYMODULE'),
  ('ntpath',
   '/Library/Frameworks/Python.framework/Versions/3.9/lib/python3.9/ntpath.py',
   'PYMODULE'),
  ('string',
   '/Library/Frameworks/Python.framework/Versions/3.9/lib/python3.9/string.py',
   'PYMODULE'),
  ('genericpath',
   '/Library/Frameworks/Python.framework/Versions/3.9/lib/python3.9/genericpath.py',
   'PYMODULE'),
  ('email',
   '/Library/Frameworks/Python.framework/Versions/3.9/lib/python3.9/email/__init__.py',
   'PYMODULE'),
  ('email.parser',
   '/Library/Frameworks/Python.framework/Versions/3.9/lib/python3.9/email/parser.py',
   'PYMODULE'),
  ('email._policybase',
   '/Library/Frameworks/Python.framework/Versions/3.9/lib/python3.9/email/_policybase.py',
   'PYMODULE'),
  ('email.utils',
   '/Library/Frameworks/Python.framework/Versions/3.9/lib/python3.9/email/utils.py',
   'PYMODULE'),
  ('email._parseaddr',
   '/Library/Frameworks/Python.framework/Versions/3.9/lib/python3.9/email/_parseaddr.py',
   'PYMODULE'),
  ('socket',
   '/Library/Frameworks/Python.framework/Versions/3.9/lib/python3.9/socket.py',
   'PYMODULE'),
  ('random',
   '/Library/Frameworks/Python.framework/Versions/3.9/lib/python3.9/random.py',
   'PYMODULE'),
  ('statistics',
   '/Library/Frameworks/Python.framework/Versions/3.9/lib/python3.9/statistics.py',
   'PYMODULE'),
  ('decimal',
   '/Library/Frameworks/Python.framework/Versions/3.9/lib/python3.9/decimal.py',
   'PYMODULE'),
  ('_pydecimal',
   '/Library/Frameworks/Python.framework/Versions/3.9/lib/python3.9/_pydecimal.py',
   'PYMODULE'),
  ('contextvars',
   '/Library/Frameworks/Python.framework/Versions/3.9/lib/python3.9/contextvars.py',
   'PYMODULE'),
  ('fractions',
   '/Library/Frameworks/Python.framework/Versions/3.9/lib/python3.9/fractions.py',
   'PYMODULE'),
  ('numbers',
   '/Library/Frameworks/Python.framework/Versions/3.9/lib/python3.9/numbers.py',
   'PYMODULE'),
  ('hashlib',
   '/Library/Frameworks/Python.framework/Versions/3.9/lib/python3.9/hashlib.py',
   'PYMODULE'),
  ('logging',
   '/Library/Frameworks/Python.framework/Versions/3.9/lib/python3.9/logging/__init__.py',
   'PYMODULE'),
  ('pickle',
   '/Library/Frameworks/Python.framework/Versions/3.9/lib/python3.9/pickle.py',
   'PYMODULE'),
  ('pprint',
   '/Library/Frameworks/Python.framework/Versions/3.9/lib/python3.9/pprint.py',
   'PYMODULE'),
  ('_compat_pickle',
   '/Library/Frameworks/Python.framework/Versions/3.9/lib/python3.9/_compat_pickle.py',
   'PYMODULE'),
  ('bisect',
   '/Library/Frameworks/Python.framework/Versions/3.9/lib/python3.9/bisect.py',
   'PYMODULE'),
  ('email.feedparser',
   '/Library/Frameworks/Python.framework/Versions/3.9/lib/python3.9/email/feedparser.py',
   'PYMODULE'),
  ('email.message',
   '/Library/Frameworks/Python.framework/Versions/3.9/lib/python3.9/email/message.py',
   'PYMODULE'),
  ('email.policy',
   '/Library/Frameworks/Python.framework/Versions/3.9/lib/python3.9/email/policy.py',
   'PYMODULE'),
  ('email.contentmanager',
   '/Library/Frameworks/Python.framework/Versions/3.9/lib/python3.9/email/contentmanager.py',
   'PYMODULE'),
  ('email.quoprimime',
   '/Library/Frameworks/Python.framework/Versions/3.9/lib/python3.9/email/quoprimime.py',
   'PYMODULE'),
  ('email.headerregistry',
   '/Library/Frameworks/Python.framework/Versions/3.9/lib/python3.9/email/headerregistry.py',
   'PYMODULE'),
  ('email.iterators',
   '/Library/Frameworks/Python.framework/Versions/3.9/lib/python3.9/email/iterators.py',
   'PYMODULE'),
  ('email.generator',
   '/Library/Frameworks/Python.framework/Versions/3.9/lib/python3.9/email/generator.py',
   'PYMODULE'),
  ('email._encoded_words',
   '/Library/Frameworks/Python.framework/Versions/3.9/lib/python3.9/email/_encoded_words.py',
   'PYMODULE'),
  ('base64',
   '/Library/Frameworks/Python.framework/Versions/3.9/lib/python3.9/base64.py',
   'PYMODULE'),
  ('getopt',
   '/Library/Frameworks/Python.framework/Versions/3.9/lib/python3.9/getopt.py',
   'PYMODULE'),
  ('quopri',
   '/Library/Frameworks/Python.framework/Versions/3.9/lib/python3.9/quopri.py',
   'PYMODULE'),
  ('uu',
   '/Library/Frameworks/Python.framework/Versions/3.9/lib/python3.9/uu.py',
   'PYMODULE'),
  ('optparse',
   '/Library/Frameworks/Python.framework/Versions/3.9/lib/python3.9/optparse.py',
   'PYMODULE'),
  ('email._header_value_parser',
   '/Library/Frameworks/Python.framework/Versions/3.9/lib/python3.9/email/_header_value_parser.py',
   'PYMODULE'),
  ('email.header',
   '/Library/Frameworks/Python.framework/Versions/3.9/lib/python3.9/email/header.py',
   'PYMODULE'),
  ('email.base64mime',
   '/Library/Frameworks/Python.framework/Versions/3.9/lib/python3.9/email/base64mime.py',
   'PYMODULE'),
  ('email.charset',
   '/Library/Frameworks/Python.framework/Versions/3.9/lib/python3.9/email/charset.py',
   'PYMODULE'),
  ('email.encoders',
   '/Library/Frameworks/Python.framework/Versions/3.9/lib/python3.9/email/encoders.py',
   'PYMODULE'),
  ('email.errors',
   '/Library/Frameworks/Python.framework/Versions/3.9/lib/python3.9/email/errors.py',
   'PYMODULE'),
  ('csv',
   '/Library/Frameworks/Python.framework/Versions/3.9/lib/python3.9/csv.py',
   'PYMODULE'),
  ('struct',
   '/Library/Frameworks/Python.framework/Versions/3.9/lib/python3.9/struct.py',
   'PYMODULE'),
  ('posixpath',
   '/Library/Frameworks/Python.framework/Versions/3.9/lib/python3.9/posixpath.py',
   'PYMODULE'),
  ('importlib.util',
   '/Library/Frameworks/Python.framework/Versions/3.9/lib/python3.9/importlib/util.py',
   'PYMODULE'),
  ('tarfile',
   '/Library/Frameworks/Python.framework/Versions/3.9/lib/python3.9/tarfile.py',
   'PYMODULE'),
  ('gzip',
   '/Library/Frameworks/Python.framework/Versions/3.9/lib/python3.9/gzip.py',
   'PYMODULE'),
  ('_compression',
   '/Library/Frameworks/Python.framework/Versions/3.9/lib/python3.9/_compression.py',
   'PYMODULE'),
  ('lzma',
   '/Library/Frameworks/Python.framework/Versions/3.9/lib/python3.9/lzma.py',
   'PYMODULE'),
  ('bz2',
   '/Library/Frameworks/Python.framework/Versions/3.9/lib/python3.9/bz2.py',
   'PYMODULE'),
  ('fnmatch',
   '/Library/Frameworks/Python.framework/Versions/3.9/lib/python3.9/fnmatch.py',
   'PYMODULE'),
  ('stat',
   '/Library/Frameworks/Python.framework/Versions/3.9/lib/python3.9/stat.py',
   'PYMODULE'),
  ('copy',
   '/Library/Frameworks/Python.framework/Versions/3.9/lib/python3.9/copy.py',
   'PYMODULE'),
  ('gettext',
   '/Library/Frameworks/Python.framework/Versions/3.9/lib/python3.9/gettext.py',
   'PYMODULE'),
  ('os',
   '/Library/Frameworks/Python.framework/Versions/3.9/lib/python3.9/os.py',
   'PYMODULE'),
  ('_py_abc',
   '/Library/Frameworks/Python.framework/Versions/3.9/lib/python3.9/_py_abc.py',
   'PYMODULE'),
  ('stringprep',
   '/Library/Frameworks/Python.framework/Versions/3.9/lib/python3.9/stringprep.py',
   'PYMODULE'),
  ('tracemalloc',
   '/Library/Frameworks/Python.framework/Versions/3.9/lib/python3.9/tracemalloc.py',
   'PYMODULE'),
  ('token',
   '/Library/Frameworks/Python.framework/Versions/3.9/lib/python3.9/token.py',
   'PYMODULE')],
 [('Python',
   '/Library/Frameworks/Python.framework/Versions/3.9/Python',
   'BINARY'),
  ('lib-dynload/math',
   '/Library/Frameworks/Python.framework/Versions/3.9/lib/python3.9/lib-dynload/math.cpython-39-darwin.so',
   'EXTENSION'),
  ('lib-dynload/select',
   '/Library/Frameworks/Python.framework/Versions/3.9/lib/python3.9/lib-dynload/select.cpython-39-darwin.so',
   'EXTENSION'),
  ('lib-dynload/_posixsubprocess',
   '/Library/Frameworks/Python.framework/Versions/3.9/lib/python3.9/lib-dynload/_posixsubprocess.cpython-39-darwin.so',
   'EXTENSION'),
  ('lib-dynload/grp',
   '/Library/Frameworks/Python.framework/Versions/3.9/lib/python3.9/lib-dynload/grp.cpython-39-darwin.so',
   'EXTENSION'),
  ('lib-dynload/_datetime',
   '/Library/Frameworks/Python.framework/Versions/3.9/lib/python3.9/lib-dynload/_datetime.cpython-39-darwin.so',
   'EXTENSION'),
  ('lib-dynload/unicodedata',
   '/Library/Frameworks/Python.framework/Versions/3.9/lib/python3.9/lib-dynload/unicodedata.cpython-39-darwin.so',
   'EXTENSION'),
  ('lib-dynload/array',
   '/Library/Frameworks/Python.framework/Versions/3.9/lib/python3.9/lib-dynload/array.cpython-39-darwin.so',
   'EXTENSION'),
  ('lib-dynload/_socket',
   '/Library/Frameworks/Python.framework/Versions/3.9/lib/python3.9/lib-dynload/_socket.cpython-39-darwin.so',
   'EXTENSION'),
  ('lib-dynload/_statistics',
   '/Library/Frameworks/Python.framework/Versions/3.9/lib/python3.9/lib-dynload/_statistics.cpython-39-darwin.so',
   'EXTENSION'),
  ('lib-dynload/_contextvars',
   '/Library/Frameworks/Python.framework/Versions/3.9/lib/python3.9/lib-dynload/_contextvars.cpython-39-darwin.so',
   'EXTENSION'),
  ('lib-dynload/_decimal',
   '/Library/Frameworks/Python.framework/Versions/3.9/lib/python3.9/lib-dynload/_decimal.cpython-39-darwin.so',
   'EXTENSION'),
  ('lib-dynload/_pickle',
   '/Library/Frameworks/Python.framework/Versions/3.9/lib/python3.9/lib-dynload/_pickle.cpython-39-darwin.so',
   'EXTENSION'),
  ('lib-dynload/_hashlib',
   '/Library/Frameworks/Python.framework/Versions/3.9/lib/python3.9/lib-dynload/_hashlib.cpython-39-darwin.so',
   'EXTENSION'),
  ('lib-dynload/_sha3',
   '/Library/Frameworks/Python.framework/Versions/3.9/lib/python3.9/lib-dynload/_sha3.cpython-39-darwin.so',
   'EXTENSION'),
  ('lib-dynload/_blake2',
   '/Library/Frameworks/Python.framework/Versions/3.9/lib/python3.9/lib-dynload/_blake2.cpython-39-darwin.so',
   'EXTENSION'),
  ('lib-dynload/_sha256',
   '/Library/Frameworks/Python.framework/Versions/3.9/lib/python3.9/lib-dynload/_sha256.cpython-39-darwin.so',
   'EXTENSION'),
  ('lib-dynload/_md5',
   '/Library/Frameworks/Python.framework/Versions/3.9/lib/python3.9/lib-dynload/_md5.cpython-39-darwin.so',
   'EXTENSION'),
  ('lib-dynload/_sha1',
   '/Library/Frameworks/Python.framework/Versions/3.9/lib/python3.9/lib-dynload/_sha1.cpython-39-darwin.so',
   'EXTENSION'),
  ('lib-dynload/_sha512',
   '/Library/Frameworks/Python.framework/Versions/3.9/lib/python3.9/lib-dynload/_sha512.cpython-39-darwin.so',
   'EXTENSION'),
  ('lib-dynload/_random',
   '/Library/Frameworks/Python.framework/Versions/3.9/lib/python3.9/lib-dynload/_random.cpython-39-darwin.so',
   'EXTENSION'),
  ('lib-dynload/_bisect',
   '/Library/Frameworks/Python.framework/Versions/3.9/lib/python3.9/lib-dynload/_bisect.cpython-39-darwin.so',
   'EXTENSION'),
  ('lib-dynload/_csv',
   '/Library/Frameworks/Python.framework/Versions/3.9/lib/python3.9/lib-dynload/_csv.cpython-39-darwin.so',
   'EXTENSION'),
  ('lib-dynload/_struct',
   '/Library/Frameworks/Python.framework/Versions/3.9/lib/python3.9/lib-dynload/_struct.cpython-39-darwin.so',
   'EXTENSION'),
  ('lib-dynload/binascii',
   '/Library/Frameworks/Python.framework/Versions/3.9/lib/python3.9/lib-dynload/binascii.cpython-39-darwin.so',
   'EXTENSION'),
  ('lib-dynload/resource',
   '/Library/Frameworks/Python.framework/Versions/3.9/lib/python3.9/lib-dynload/resource.cpython-39-darwin.so',
   'EXTENSION'),
  ('lib-dynload/_lzma',
   '/Library/Frameworks/Python.framework/Versions/3.9/lib/python3.9/lib-dynload/_lzma.cpython-39-darwin.so',
   'EXTENSION'),
  ('lib-dynload/_bz2',
   '/Library/Frameworks/Python.framework/Versions/3.9/lib/python3.9/lib-dynload/_bz2.cpython-39-darwin.so',
   'EXTENSION'),
  ('lib-dynload/zlib',
   '/Library/Frameworks/Python.framework/Versions/3.9/lib/python3.9/lib-dynload/zlib.cpython-39-darwin.so',
   'EXTENSION'),
  ('lib-dynload/_multibytecodec',
   '/Library/Frameworks/Python.framework/Versions/3.9/lib/python3.9/lib-dynload/_multibytecodec.cpython-39-darwin.so',
   'EXTENSION'),
  ('lib-dynload/_codecs_jp',
   '/Library/Frameworks/Python.framework/Versions/3.9/lib/python3.9/lib-dynload/_codecs_jp.cpython-39-darwin.so',
   'EXTENSION'),
  ('lib-dynload/_codecs_cn',
   '/Library/Frameworks/Python.framework/Versions/3.9/lib/python3.9/lib-dynload/_codecs_cn.cpython-39-darwin.so',
   'EXTENSION'),
  ('lib-dynload/_codecs_iso2022',
   '/Library/Frameworks/Python.framework/Versions/3.9/lib/python3.9/lib-dynload/_codecs_iso2022.cpython-39-darwin.so',
   'EXTENSION'),
  ('lib-dynload/_codecs_kr',
   '/Library/Frameworks/Python.framework/Versions/3.9/lib/python3.9/lib-dynload/_codecs_kr.cpython-39-darwin.so',
   'EXTENSION'),
  ('lib-dynload/_codecs_tw',
   '/Library/Frameworks/Python.framework/Versions/3.9/lib/python3.9/lib-dynload/_codecs_tw.cpython-39-darwin.so',
   'EXTENSION'),
  ('lib-dynload/_codecs_hk',
   '/Library/Frameworks/Python.framework/Versions/3.9/lib/python3.9/lib-dynload/_codecs_hk.cpython-39-darwin.so',
   'EXTENSION'),
  ('lib-dynload/_heapq',
   '/Library/Frameworks/Python.framework/Versions/3.9/lib/python3.9/lib-dynload/_heapq.cpython-39-darwin.so',
   'EXTENSION'),
  ('libssl.1.1.dylib',
   '/Library/Frameworks/Python.framework/Versions/3.9/lib/libssl.1.1.dylib',
   'BINARY'),
  ('libcrypto.1.1.dylib',
   '/Library/Frameworks/Python.framework/Versions/3.9/lib/libcrypto.1.1.dylib',
   'BINARY')],
 [],
 [],
 [('base_library.zip',
   '/Users/ezequielabregu/Desktop/Python_Learning/testPyinstaller/build/helloworld/base_library.zip',
   'DATA')],
 [])
