([('helloworld',
   '/Users/ezequielabregu/Desktop/Python_Learning/testPyinstaller/build/helloworld/helloworld',
   'EXECUTABLE'),
  ('lib-dynload/_struct.cpython-39-darwin.so',
   '/Library/Frameworks/Python.framework/Versions/3.9/lib/python3.9/lib-dynload/_struct.cpython-39-darwin.so',
   'EXTENSION'),
  ('lib-dynload/zlib.cpython-39-darwin.so',
   '/Library/Frameworks/Python.framework/Versions/3.9/lib/python3.9/lib-dynload/zlib.cpython-39-darwin.so',
   'EXTENSION'),
  ('Python',
   '/Library/Frameworks/Python.framework/Versions/3.9/Python',
   'BINARY'),
  ('lib-dynload/math',
   '/Library/Frameworks/Python.framework/Versions/3.9/lib/python3.9/lib-dynload/math.cpython-39-darwin.so',
   'EXTENSION'),
  ('lib-dynload/select',
   '/Library/Frameworks/Python.framework/Versions/3.9/lib/python3.9/lib-dynload/select.cpython-39-darwin.so',
   'EXTENSION'),
  ('lib-dynload/_posixsubprocess',
   '/Library/Frameworks/Python.framework/Versions/3.9/lib/python3.9/lib-dynload/_posixsubprocess.cpython-39-darwin.so',
   'EXTENSION'),
  ('lib-dynload/grp',
   '/Library/Frameworks/Python.framework/Versions/3.9/lib/python3.9/lib-dynload/grp.cpython-39-darwin.so',
   'EXTENSION'),
  ('lib-dynload/_datetime',
   '/Library/Frameworks/Python.framework/Versions/3.9/lib/python3.9/lib-dynload/_datetime.cpython-39-darwin.so',
   'EXTENSION'),
  ('lib-dynload/unicodedata',
   '/Library/Frameworks/Python.framework/Versions/3.9/lib/python3.9/lib-dynload/unicodedata.cpython-39-darwin.so',
   'EXTENSION'),
  ('lib-dynload/array',
   '/Library/Frameworks/Python.framework/Versions/3.9/lib/python3.9/lib-dynload/array.cpython-39-darwin.so',
   'EXTENSION'),
  ('lib-dynload/_socket',
   '/Library/Frameworks/Python.framework/Versions/3.9/lib/python3.9/lib-dynload/_socket.cpython-39-darwin.so',
   'EXTENSION'),
  ('lib-dynload/_statistics',
   '/Library/Frameworks/Python.framework/Versions/3.9/lib/python3.9/lib-dynload/_statistics.cpython-39-darwin.so',
   'EXTENSION'),
  ('lib-dynload/_contextvars',
   '/Library/Frameworks/Python.framework/Versions/3.9/lib/python3.9/lib-dynload/_contextvars.cpython-39-darwin.so',
   'EXTENSION'),
  ('lib-dynload/_decimal',
   '/Library/Frameworks/Python.framework/Versions/3.9/lib/python3.9/lib-dynload/_decimal.cpython-39-darwin.so',
   'EXTENSION'),
  ('lib-dynload/_pickle',
   '/Library/Frameworks/Python.framework/Versions/3.9/lib/python3.9/lib-dynload/_pickle.cpython-39-darwin.so',
   'EXTENSION'),
  ('lib-dynload/_hashlib',
   '/Library/Frameworks/Python.framework/Versions/3.9/lib/python3.9/lib-dynload/_hashlib.cpython-39-darwin.so',
   'EXTENSION'),
  ('lib-dynload/_sha3',
   '/Library/Frameworks/Python.framework/Versions/3.9/lib/python3.9/lib-dynload/_sha3.cpython-39-darwin.so',
   'EXTENSION'),
  ('lib-dynload/_blake2',
   '/Library/Frameworks/Python.framework/Versions/3.9/lib/python3.9/lib-dynload/_blake2.cpython-39-darwin.so',
   'EXTENSION'),
  ('lib-dynload/_sha256',
   '/Library/Frameworks/Python.framework/Versions/3.9/lib/python3.9/lib-dynload/_sha256.cpython-39-darwin.so',
   'EXTENSION'),
  ('lib-dynload/_md5',
   '/Library/Frameworks/Python.framework/Versions/3.9/lib/python3.9/lib-dynload/_md5.cpython-39-darwin.so',
   'EXTENSION'),
  ('lib-dynload/_sha1',
   '/Library/Frameworks/Python.framework/Versions/3.9/lib/python3.9/lib-dynload/_sha1.cpython-39-darwin.so',
   'EXTENSION'),
  ('lib-dynload/_sha512',
   '/Library/Frameworks/Python.framework/Versions/3.9/lib/python3.9/lib-dynload/_sha512.cpython-39-darwin.so',
   'EXTENSION'),
  ('lib-dynload/_random',
   '/Library/Frameworks/Python.framework/Versions/3.9/lib/python3.9/lib-dynload/_random.cpython-39-darwin.so',
   'EXTENSION'),
  ('lib-dynload/_bisect',
   '/Library/Frameworks/Python.framework/Versions/3.9/lib/python3.9/lib-dynload/_bisect.cpython-39-darwin.so',
   'EXTENSION'),
  ('lib-dynload/_csv',
   '/Library/Frameworks/Python.framework/Versions/3.9/lib/python3.9/lib-dynload/_csv.cpython-39-darwin.so',
   'EXTENSION'),
  ('lib-dynload/_struct',
   '/Library/Frameworks/Python.framework/Versions/3.9/lib/python3.9/lib-dynload/_struct.cpython-39-darwin.so',
   'EXTENSION'),
  ('lib-dynload/binascii',
   '/Library/Frameworks/Python.framework/Versions/3.9/lib/python3.9/lib-dynload/binascii.cpython-39-darwin.so',
   'EXTENSION'),
  ('lib-dynload/resource',
   '/Library/Frameworks/Python.framework/Versions/3.9/lib/python3.9/lib-dynload/resource.cpython-39-darwin.so',
   'EXTENSION'),
  ('lib-dynload/_lzma',
   '/Library/Frameworks/Python.framework/Versions/3.9/lib/python3.9/lib-dynload/_lzma.cpython-39-darwin.so',
   'EXTENSION'),
  ('lib-dynload/_bz2',
   '/Library/Frameworks/Python.framework/Versions/3.9/lib/python3.9/lib-dynload/_bz2.cpython-39-darwin.so',
   'EXTENSION'),
  ('lib-dynload/zlib',
   '/Library/Frameworks/Python.framework/Versions/3.9/lib/python3.9/lib-dynload/zlib.cpython-39-darwin.so',
   'EXTENSION'),
  ('lib-dynload/_multibytecodec',
   '/Library/Frameworks/Python.framework/Versions/3.9/lib/python3.9/lib-dynload/_multibytecodec.cpython-39-darwin.so',
   'EXTENSION'),
  ('lib-dynload/_codecs_jp',
   '/Library/Frameworks/Python.framework/Versions/3.9/lib/python3.9/lib-dynload/_codecs_jp.cpython-39-darwin.so',
   'EXTENSION'),
  ('lib-dynload/_codecs_cn',
   '/Library/Frameworks/Python.framework/Versions/3.9/lib/python3.9/lib-dynload/_codecs_cn.cpython-39-darwin.so',
   'EXTENSION'),
  ('lib-dynload/_codecs_iso2022',
   '/Library/Frameworks/Python.framework/Versions/3.9/lib/python3.9/lib-dynload/_codecs_iso2022.cpython-39-darwin.so',
   'EXTENSION'),
  ('lib-dynload/_codecs_kr',
   '/Library/Frameworks/Python.framework/Versions/3.9/lib/python3.9/lib-dynload/_codecs_kr.cpython-39-darwin.so',
   'EXTENSION'),
  ('lib-dynload/_codecs_tw',
   '/Library/Frameworks/Python.framework/Versions/3.9/lib/python3.9/lib-dynload/_codecs_tw.cpython-39-darwin.so',
   'EXTENSION'),
  ('lib-dynload/_codecs_hk',
   '/Library/Frameworks/Python.framework/Versions/3.9/lib/python3.9/lib-dynload/_codecs_hk.cpython-39-darwin.so',
   'EXTENSION'),
  ('lib-dynload/_heapq',
   '/Library/Frameworks/Python.framework/Versions/3.9/lib/python3.9/lib-dynload/_heapq.cpython-39-darwin.so',
   'EXTENSION'),
  ('libssl.1.1.dylib',
   '/Library/Frameworks/Python.framework/Versions/3.9/lib/libssl.1.1.dylib',
   'BINARY'),
  ('libcrypto.1.1.dylib',
   '/Library/Frameworks/Python.framework/Versions/3.9/lib/libcrypto.1.1.dylib',
   'BINARY'),
  ('base_library.zip',
   '/Users/ezequielabregu/Desktop/Python_Learning/testPyinstaller/build/helloworld/base_library.zip',
   'DATA')],)
