('/Users/ezequielabregu/Desktop/Python_Learning/testPyinstaller/build/helloworld/helloworld.pkg',
 {'BINARY': 1,
  'DATA': 1,
  'EXECUTABLE': 1,
  'EXTENSION': 1,
  'PYMODULE': 1,
  'PYSOURCE': 1,
  'PYZ': 0,
  'SPLASH': 1},
 [('PYZ-00.pyz',
   '/Users/ezequielabregu/Desktop/Python_Learning/testPyinstaller/build/helloworld/PYZ-00.pyz',
   'PYZ'),
  ('lib-dynload/_struct',
   '/Library/Frameworks/Python.framework/Versions/3.9/lib/python3.9/lib-dynload/_struct.cpython-39-darwin.so',
   'EXTENSION'),
  ('lib-dynload/zlib',
   '/Library/Frameworks/Python.framework/Versions/3.9/lib/python3.9/lib-dynload/zlib.cpython-39-darwin.so',
   'EXTENSION'),
  ('struct',
   '/Library/Frameworks/Python.framework/Versions/3.9/lib/python3.9/struct.pyo',
   'PYMODULE'),
  ('pyimod01_os_path',
   '/Library/Frameworks/Python.framework/Versions/3.9/lib/python3.9/site-packages/PyInstaller/loader/pyimod01_os_path.pyc',
   'PYMODULE'),
  ('pyimod02_archive',
   '/Library/Frameworks/Python.framework/Versions/3.9/lib/python3.9/site-packages/PyInstaller/loader/pyimod02_archive.pyc',
   'PYMODULE'),
  ('pyimod03_importers',
   '/Library/Frameworks/Python.framework/Versions/3.9/lib/python3.9/site-packages/PyInstaller/loader/pyimod03_importers.pyc',
   'PYMODULE'),
  ('pyimod04_ctypes',
   '/Library/Frameworks/Python.framework/Versions/3.9/lib/python3.9/site-packages/PyInstaller/loader/pyimod04_ctypes.pyc',
   'PYMODULE'),
  ('pyiboot01_bootstrap',
   '/Library/Frameworks/Python.framework/Versions/3.9/lib/python3.9/site-packages/PyInstaller/loader/pyiboot01_bootstrap.py',
   'PYSOURCE'),
  ('pyi_rth_subprocess',
   '/Library/Frameworks/Python.framework/Versions/3.9/lib/python3.9/site-packages/PyInstaller/hooks/rthooks/pyi_rth_subprocess.py',
   'PYSOURCE'),
  ('helloworld',
   '/Users/ezequielabregu/Desktop/Python_Learning/testPyinstaller/helloworld.py',
   'PYSOURCE')],
 True,
 False,
 False,
 [],
 'arm64',
 None,
 None)
